{
  "columns": [
    "director"
  ],
  "data": [
    {
      "row": [
        {
          "born": 1967,
          "name": "James Marshall"
        }
      ],
      "meta": [
        {
          "id": 25,
          "type": "node"
        }
      ],
      "graph": {
        "nodes": [
          {
            "identity": 25,
            "labels": [
              "Person"
            ],
            "properties": {
              "born": 1967,
              "name": "James Marshall"
            },
            "id": "25"
          }
        ],
        "relationships": []
      }
    },
    {
      "row": [
        {
          "born": 1967,
          "name": "Lilly Wachowski"
        }
      ],
      "meta": [
        {
          "id": 5,
          "type": "node"
        }
      ],
      "graph": {
        "nodes": [
          {
            "identity": 5,
            "labels": [
              "Person"
            ],
            "properties": {
              "born": 1967,
              "name": "Lilly Wachowski"
            },
            "id": "5"
          }
        ],
        "relationships": []
      }
    },
    {
      "row": [
        {
          "born": 1965,
          "name": "Lana Wachowski"
        }
      ],
      "meta": [
        {
          "id": 6,
          "type": "node"
        }
      ],
      "graph": {
        "nodes": [
          {
            "identity": 6,
            "labels": [
              "Person"
            ],
            "properties": {
              "born": 1965,
              "name": "Lana Wachowski"
            },
            "id": "6"
          }
        ],
        "relationships": []
      }
    },
    {
      "row": [
        {
          "born": 1965,
          "name": "Tom Tykwer"
        }
      ],
      "meta": [
        {
          "id": 108,
          "type": "node"
        }
      ],
      "graph": {
        "nodes": [
          {
            "identity": 108,
            "labels": [
              "Person"
            ],
            "properties": {
              "born": 1965,
              "name": "Tom Tykwer"
            },
            "id": "108"
          }
        ],
        "relationships": []
      }
    },
    {
      "row": [
        {
          "born": 1965,
          "name": "Lana Wachowski"
        }
      ],
      "meta": [
        {
          "id": 6,
          "type": "node"
        }
      ],
      "graph": {
        "nodes": [
          {
            "identity": 6,
            "labels": [
              "Person"
            ],
            "properties": {
              "born": 1965,
              "name": "Lana Wachowski"
            },
            "id": "6"
          }
        ],
        "relationships": []
      }
    },
    {
      "row": [
        {
          "born": 1967,
          "name": "Lilly Wachowski"
        }
      ],
      "meta": [
        {
          "id": 5,
          "type": "node"
        }
      ],
      "graph": {
        "nodes": [
          {
            "identity": 5,
            "labels": [
              "Person"
            ],
            "properties": {
              "born": 1967,
              "name": "Lilly Wachowski"
            },
            "id": "5"
          }
        ],
        "relationships": []
      }
    },
    {
      "row": [
        {
          "born": 1965,
          "name": "Lana Wachowski"
        }
      ],
      "meta": [
        {
          "id": 6,
          "type": "node"
        }
      ],
      "graph": {
        "nodes": [
          {
            "identity": 6,
            "labels": [
              "Person"
            ],
            "properties": {
              "born": 1965,
              "name": "Lana Wachowski"
            },
            "id": "6"
          }
        ],
        "relationships": []
      }
    },
    {
      "row": [
        {
          "born": 1967,
          "name": "Lilly Wachowski"
        }
      ],
      "meta": [
        {
          "id": 5,
          "type": "node"
        }
      ],
      "graph": {
        "nodes": [
          {
            "identity": 5,
            "labels": [
              "Person"
            ],
            "properties": {
              "born": 1967,
              "name": "Lilly Wachowski"
            },
            "id": "5"
          }
        ],
        "relationships": []
      }
    },
    {
      "row": [
        {
          "born": 1965,
          "name": "Lana Wachowski"
        }
      ],
      "meta": [
        {
          "id": 6,
          "type": "node"
        }
      ],
      "graph": {
        "nodes": [
          {
            "identity": 6,
            "labels": [
              "Person"
            ],
            "properties": {
              "born": 1965,
              "name": "Lana Wachowski"
            },
            "id": "6"
          }
        ],
        "relationships": []
      }
    },
    {
      "row": [
        {
          "born": 1967,
          "name": "Lilly Wachowski"
        }
      ],
      "meta": [
        {
          "id": 5,
          "type": "node"
        }
      ],
      "graph": {
        "nodes": [
          {
            "identity": 5,
            "labels": [
              "Person"
            ],
            "properties": {
              "born": 1967,
              "name": "Lilly Wachowski"
            },
            "id": "5"
          }
        ],
        "relationships": []
      }
    }
  ],
  "stats": {
    "nodes_created": 0,
    "nodes_deleted": 0,
    "relationships_created": 0,
    "relationships_deleted": 0,
    "properties_set": 0,
    "labels_added": 0,
    "labels_removed": 0,
    "indexes_added": 0,
    "indexes_removed": 0,
    "constraints_added": 0,
    "constraints_removed": 0,
    "contains_updates": false
  }
}